6954c969f41724441d3102936bf135aa1b689e61acfddfd2c1
cf9b7a772be89d2009cf210f47bf24c2ce569d07cc3fa39aeb
3e835d85d05e1d610f2546c80ca4d38f0c35f8acd6ba6e904b
b5ea89006228a14867a0f1146753d0bd53b105ff0e26b62c97
18433daa3163ea23f398044c4d69250b10706d52b1cd821ea0
4430d0160619b31eff1ac3512568568b179c1066cf74dd243c
cde56af582f1f8c73d5223d8cbc312e1e447ab0d909b5f1e0b
dace2018641f4c59f91a8a23d3899f0cd1b8d4f32725c32109
9584bc4d457b3ea6b64fd8d45e7b9a4bf3a48b3152d9b87b0d
2ba91bfd9a7a95c65c1fb2640f861e4c5955e945038f7689bc
7fd4d1e69b0b58e7499d9396bccc5b96098bec1bd5cdf26c5d
86153fc9a7fbbfcabdd1b9a7bd22a8bac5c007df27ba009ab4
20d58cce1aacec012bcae3c987f81cf54db8d3426f1d6b6947
ebbe092184560b6361ab57b20d84c459b6125857603465c330
84f6a4f96458f828dee8154309236fb36c18c904ad4dc00d48
fc48384017d3453d687e4cfd152fd7d488b49e094ab987c7f3
b153430695345cf16c4c144ab31a1b1ec0454de085e00d6242
8fd5187dba488706227a3ee861f2d7831605596fff3cf06d12
ba2b3fd26c55158135b6d8fb454be82205374e2fb5545b0c66
892044bbdf01840a8a69b4e69dbe64cc787916819eb252a851
7f7b3de72f16b99291f6ae4165c6fd648c4b40a8e3023e64b0
ff2454ca611c520f58648ffeeebb317b0f8fb33803084ac77e
0aa9ef3f2656fdd2197a4c72b39e5530036491ebd096d67c86
b2426bcbd1e9254316a20c5a06f0ce24c7a16330a66df3c849
771cd95eff2e0ee0832c9eba4a216fafb9fb3f77cc0ca39ed6
fc4aa1d62afd3cb62da51dc9e60b47228de6043e74c78677a7
c4216a5fba2833c8dfca9b4a239c6df7202e104c0174ade748
ecbdf195e6c9563a3fc726b65c977e6fe2257ecd5c55fb6358
4260e5d49910e37089ed9aa26b1061b6483e9cb996c3f4d5c6
c9a1a84c45c67f5577bc5c2b8d1b0603e8b0bdc877fc267574
355bb75f4e94b89df1a990696a62478cc0f9bc03d46fa0573c
f1c1a0f70bdc5fd13163fb84d271fa25e0b8965e65e125d944
b56ae56b92f8a5e8055773863ddf73bce0bf33975e84e40397
7e5b7d960003a2c37a5211e1ca967c14b27d8a240c1fc8e5fb
8bcd5ac10fd9c19323747d512447b24ec48dec9c492bf3a522
63ec44e8049bd29d5ecdf0e5f7c5ab4dda33d60a51336bb516
c29d784dd4e8ef8ace119d11f3a60d77a22a4d343ff79d5a7d
2271478cbd96bff18b3d14f9586988042da9b35c269f859f5d
d4f5807e896a32d8a0ced2428b75e52fc7985e840afa15c29b
b02793d31804d214e283e36aa9ebd5d3b38de6bae8673aa7fd
